Exercises and Art Project
…
Code

#loading in packages

library(ggplot2)
library(tibble)
library(dplyr)

Code

#calling mpg data set
mpg

# A tibble: 234 × 11
   manufacturer model      displ  year   cyl trans drv     cty   hwy fl    class
   <chr>        <chr>      <dbl> <int> <int> <chr> <chr> <int> <int> <chr> <chr>
 1 audi         a4           1.8  1999     4 auto… f        18    29 p     comp…
 2 audi         a4           1.8  1999     4 manu… f        21    29 p     comp…
 3 audi         a4           2    2008     4 manu… f        20    31 p     comp…
 4 audi         a4           2    2008     4 auto… f        21    30 p     comp…
 5 audi         a4           2.8  1999     6 auto… f        16    26 p     comp…
 6 audi         a4           2.8  1999     6 manu… f        18    26 p     comp…
 7 audi         a4           3.1  2008     6 auto… f        18    27 p     comp…
 8 audi         a4 quattro   1.8  1999     4 manu… 4        18    26 p     comp…
 9 audi         a4 quattro   1.8  1999     4 auto… 4        16    25 p     comp…
10 audi         a4 quattro   2    2008     4 manu… 4        20    28 p     comp…
# ℹ 224 more rows
…
print(sample_data())

# A tibble: 100 × 7
      x0     y0    x1    y1  shade   size shape
   <dbl>  <dbl> <dbl> <dbl>  <dbl>  <dbl> <fct>
 1 0.300 0.0555 0.436 0.244 0.989  0.691  19   
 2 0.908 0.996  1.08  1.15  0.825  0.334  8    
 3 0.572 0.786  0.444 0.769 0.247  0.783  11   
 4 0.519 0.749  0.669 0.900 0.267  0.413  12   
 5 0.800 0.822  0.606 0.935 0.317  0.683  15   
 6 0.565 0.841  0.453 0.931 0.833  0.0369 16   
 7 0.665 0.435  0.849 0.619 0.753  0.593  6    
 8 0.806 0.0858 0.842 0.119 0.0903 0.431  8    
 9 0.445 0.315  0.399 0.316 0.248  0.830  11   
10 0.272 0.827  0.450 0.848 0.682  0.902  10   
# ℹ 90 more rows
…
Code

grow_polygon(polygon=square, iterations = 1000, noise = 1, seed= NULL)

# A tibble: 1,005 × 3
           x        y seg_len
       <dbl>    <dbl>   <dbl>
 1  0         0       0.00202
 2  0.00102   0.00175 0.0181 
 3 -0.0144   -0.00775 0.00541
 4 -0.0160   -0.0129  0.0285 
 5  0.00164  -0.0353  0.00837
 6  0.00788  -0.0409  0.00785
 7  0.00137  -0.0452  0.00338
 8 -0.00166  -0.0467  0.0136 
 9 -0.000487 -0.0332  0.0144 
10  0.0138   -0.0310  0.0109 
# ℹ 995 more rows
…
